﻿id;Title;"Federale Overheidsinstelling / Agence du gouvernement Fédéral";"Verwerkingsverantwoordelijke of verwerker / Responsable du traitement ou sous-traitant_prd_identification_processing_responsible_function";"Verwerkingsverantwoordelijke of verwerker / Responsable du traitement ou sous-traitant_prd_identification_processing_responsible_function_type";"Gedelegeerde van de verwerkingsverantwoordelijke of de verwerker / Délégué du responsable du traitement ou du sous-traitant";"Openbaarheid / Visibilité";"Specifieer indien niet publiek / Spécifier si non publique";"Naam (NL)";"Nom (FR)";"Verwerking (NL)";"Traitement (FR)";"Hoofdverwerkingsdoel / Finalité principale du traitement";"Andere verwerkingsdoelen / Autres finalités du traitement";"Juridische Verwerkingsgrond / Base juridique du traitement";"Start / Date de début";"Einde / Date de fin";"Profilering / profilage";"Categorie(ën) betrokkenen / Catégories de personnes concernées";"Gegevensuitwisselingen / Échange de données_prd_data_data_exchange_data_category";"Gegevensuitwisselingen / Échange de données_prd_data_data_exchange_data_shared";"Gegevensuitwisselingen / Échange de données_prd_data_data_exchange_beneficiaries";"Gegevensuitwisselingen / Échange de données_prd_data_data_exchange_shared_with_federal_government";"Gegevensuitwisselingen / Échange de données_prd_data_data_exchange_authority";"Gegevensuitwisselingen / Échange de données_prd_data_data_exchange_data_shared_in_europe";"Gegevensuitwisselingen / Échange de données_prd_data_data_exchange_european_countries";"Gegevensuitwisselingen / Échange de données_prd_data_data_exchange_warranties_document";"Gegevensuitwisselingen / Échange de données_prd_data_data_exchange_data_shared_outside_europe";"Gegevensuitwisselingen / Échange de données_prd_data_data_exchange_countries_outside_europe";"Gegevensuitwisselingen / Échange de données_prd_data_data_exchange_warranties_document_outside_europe";"Gegevensuitwisselingen / Échange de données_prd_data_data_retention_duration";"Authentieke bron / Source authentique";"Selecteer authentieke bron /  Sélectionnez une source authentique";"Andere bron / Autre Source";"Verwerker type / Type de sous-traitant";"Publieke overheidsnaam / Nom de l'autorité publique";"KBO identificatie nummer / Numéro d’identification BCE";"Nummer gegevensverwerkingscontract of identificatie voor gegevensverwerking / Numéro de contrat de traitement de données ou identification de traitement de données";"Beschrijving / Description";"Risico en beveiligingsmaatregelen / Mesures de risque et de sécurité";"Risico / Risque";"Documentatie beveiligingsmaatregelen / Documentation des mesures de sécurité";"Opmerkingen / Observations"
3439;"BE-ALERT / BE-ALERT";3908;"Bart Raemaekers";"Verantwoordelijke voor de verwerking / Responsable de traitement";;"Publiek / publique";;BE-ALERT;BE-ALERT;"Waarschuwing van de bevolking (die vooraf ingeschreven in) in geval van nood";"Alerte à la population (préenregistrée) en cas de crise";2850;;;20171024;;;2161;3443//3444//3445//3474//3487;0;;0;;0;;;0;;;;;;;"Publiek / Public";;;;;"Technisch: Beveiligde website (https) met registratieformulier met captcha en email verificatie. Rolgebaseerde toegangscontrole met individualisatie van weergaven en beheer door beheerder. Hoge beschikbaarheid via 2 (binnenkort 4) geclusterde servers. Fysieke beveiligingsmaatregelen voor het datacenter. Firewall en DMZ met anti-Dos regels. Jaarlijkse audit
Organisationeel: Registratieformulier met captcha + email verificatie. Tijdelijke activatie van accounts (datum van geldigheid). De aanvraagprocedure voor een account (ex: burgemeester) heeft de verplichtingen en plichten aangetoond. Geïndividualiseerde weergaven volgens het profiel. Adviezen (gunstig) aangevraagd van de Commissie voor de persoonlijke levensfeer (9/9/15 nr 34/2015)

-Audit
-Authenticatiesystemen
-Aanduiding functionaris voor gegevensbescherming";;;
3539;"Dossierbeheer / Gestion des dossiers";3906;"Seppe Brantegem";"Verantwoordelijke voor de verwerking / Responsable de traitement";;"Publiek / publique";;Dossierbeheer;"Gestion des dossiers";"Beheer van dossiers betreffende niet-begeleide minderjarige vreemdelingen";"Gestion des dossiers concernant les étrangers mineurs non accompagnés";2847;2841//2830;;20171011;;1;2161//2169//2170//2171;3443//3446//3447//3452//3460//3464//3465//3466//3467//3468//3469//3470//3471//3472//3474//3476//3477//3478//3479//3481//3480//3482//3483//3484//3486//3487//3488//3489//3490//3492//3494//3495//3498//3513//3514//3515//3517//3516//3518//3519//3520//3521;0;;0;;0;;;0;;;;;;;"Privaat / Privé";;RNN;;;;;;
3544;"ICMS / ICMS";3908;"Bart Raeymaekers";"Verantwoordelijke voor de verwerking / Responsable de traitement";;"Publiek / publique";;ICMS;ICMS;" ";" ";2839;;3431;;;;2161//2162;3443//3449//3444//3487;0;;0;;0;;;0;;;;;;;"Publiek / Public";;;;;"Serveur sécurisé externe hébergeant le site web. Role based access control (tout le monde n'a pas accès au site, vues personnalisées). Comptes admin séparés. Serveur de backup (NAS) au Centre de Crise protégé par l'infrastructure ICT: firewall, DMZ, backup,… Logs des connexions

Uniquement accessible après avoir complété un formulaire de demande d'accès et approbation. Vues personnalisées dépendant du contexte de l'utilisateur.";;;
3545;"Alert-SMS / Alert-SMS";3908;"Bart Raeymaekers";"Verantwoordelijke voor de verwerking / Responsable de traitement";;"Publiek / publique";;Alert-SMS;Alert-SMS;" ";" ";2839;;3431;;;;2161;3444//3445//3443;0;;0;;0;;;0;;;;;;;"Publiek / Public";;;;;"Cartographie GIS (interne). Mesures de sécurité physique pour le datacenter (Centre de Crise). Firewall et DMZ.  Envoi de la région (cartographie) de manière sécurisée aux opérateurs GSM ainsi qu'envoi sécurisé de la communication à faire. + mesures organisationelles

Procédure de call-back (permanence) avec les opérateurs gsm + vérification d'identité. Procédure stricte à suivre pour l'envoi des alertes. Les numéros et identités ne sont pas connus du CC (uniquement des statistiques d'envoi/réception). Avis (favorables) demandés à la Commission Vie Privée (16/12/15 num 56/2015)";;;
3547;"Essential / Essential";3908;"Bart Raeymaekers";"Verantwoordelijke voor de verwerking / Responsable de traitement";;"Publiek / publique";;Essential;Essential;" Lijst van contactpersonen in geval er problemen zijn met de kritieke infrastructuren";" Liste des points de contact en cas de problème sur les infrastructures critiques";2839;;3435;;;;2177;3443//3444//3445//3449;0;;0;;0;;;0;;;;;;;"Publiek / Public";;;;;"Serveur sécurisé interne hébergeant le site web. Role based access control (tout le monde n'a pas accès au site). Comptes admin séparés. Serveur au Centre de Crise protégé par l'infrastructure ICT: firewall, DMZ, backup,… Logs des connexions

Uniquement accessible par le personnel Infrastructures Critiques et la Permanence. Procédure formelle de demande d'accès auprès du responsable. Utilisateurs désactivés/supprimés lorsqu'ils quittent le CC ou changent de poste";;;
3548;"CRIMSON / CRIMSON";3908;"Bart Raeymaekers";"Verantwoordelijke voor de verwerking / Responsable de traitement";;"Publiek / publique";;CRIMSON;CRIMSON;"Lijst van contactpersonen in geval van nood";"Liste des personnes de contact en cas de crise";2839;;3435;;;;2177;3443//3449//3445;1;//////;0;;1;;;0;;;;;;;"Publiek / Public";;;;;;;;
3548;"CRIMSON / CRIMSON";3908;"Bart Raeymaekers";"Verantwoordelijke voor de verwerking / Responsable de traitement";;"Publiek / publique";;CRIMSON;CRIMSON;"Lijst van contactpersonen in geval van nood";"Liste des personnes de contact en cas de crise";2839;;3435;;;;2177;3445//3446//3447//3451//3471;1;////;0;;1;//;;0;//;;;;;;"Publiek / Public";;;;;;;;
3549;"GIS / GIS";3908;"Bart Raemaekers";"Verantwoordelijke voor de verwerking / Responsable de traitement";;"Beperkt publiek / publique avec restrictions";"Bescherming van de fundamentele rechten en vrijheden van de bestuurden <br> Protection des libertés et les droits fondamentaux des administrés";GIS;GIS;"In kaart brengen van gebieden (gemeenten, provincies, Seveso gebieden)";"Cartographie de zones (communes, Provinces, zones Seveso)";2839;;3431;;;;2161;3445//3456;1;////;0;;1;;;0;;;;;;;"Publiek / Public";;;;;"Site web sécurisé interne. Role based access control. Conservation des logs de connexion. Serveur au Centre de Crise protégé par l'infrastructure ICT: firewall, DMZ,…

Uniquement accessible par le personnel Planification d'Urgence pour génération de cartes";;;
3550;"Perm-contacts / Perm-contacts";3908;"Bart Raeymaekers";"Verantwoordelijke voor de verwerking / Responsable de traitement";;"Privaat / privé";"Bescherming van een federaal economisch of financieel belang, de munt of het openbaar krediet <br> Protection d'un intérêt économique ou financier fédéral, la monnaie ou le crédit public";Perm-contacts;Perm-contacts;"Lijst van contactpersonen in geval van nood";"Liste des personnes de contact en cas de crise";2839;;3435;;;;2177;3443//3445;1;//;0;;1;;;0;;;;;;;"Publiek / Public";;;;;"Serveur sécurisé interne hébergeant le site web. Role based access control (seule la Permanence a accès). Serveur au Centre de Crise protégé par l'infrastructure ICT: firewall, DMZ, backup,…

Uniquement accessible par le personnel de la Permanence. ";;;
3551;"Contact lijst SEVESO / liste de contacts SEVESO";3908;"Bart Raeymaekers,";"Verantwoordelijke voor de verwerking / Responsable de traitement,";;"Publiek / publique";;"Contact lijst SEVESO";"liste de contacts SEVESO";"Contactlijst in geval van Seveso urgenties (Seveso locaties, urgentiediensten,...)";"Liste des points de contact en cas de problème Seveso (ex: sites Seveso, services d'urgence,…)";2839;;3434//3435;;;;2172;3443//3445;0;;0;;0;;;0;;;;;;;"Publiek / Public";;;;;"Serveur sécurisé interne hébergeant le fichier. Role based access control (tout le monde n'a pas accès au fichier). Serveur au Centre de Crise protégé par l'infrastructure ICT: firewall, DMZ, backup,…

Uniquement accessible par le personnel Planification d'Urgence en cas d'alerte Seveso";;;
3552;"SMS-Server / SMS-Server";3908;"Bart Raeymaekers";"Verantwoordelijke voor de verwerking / Responsable de traitement";;"Publiek / publique";;SMS-Server;SMS-Server;"Versturen/ontvangen van sms'n op volgen van de crisis door de Permanentie";"Envoi/réception de sms et suivi de crise par la Permanence";2839;;3435;;;;2177;3443//3445;0;;0;;0;;;0;;;;;;;"Publiek / Public";;;;;"Serveur sécurisé interne l'application (site web). 1 accès pour la Permanence (utilisateur: envoi/réception) et un accès admin. Serveur au Centre de Crise protégé par l'infrastructure ICT: firewall, DMZ, backup,… Backup quotidien. Procédure haute disponibilité et réparation automatique. Monitoring automatique de la puissance du signal et email en cas de problème. Reporting. Accès aux logs et à la db: protégés.

Uniquement accessible par le personnel de la Permanence et par l'administrateur.";;;
3552;"SMS-Server / SMS-Server";3908;"Bart Raeymaekers";"Verantwoordelijke voor de verwerking / Responsable de traitement";;"Publiek / publique";;SMS-Server;SMS-Server;"Versturen/ontvangen van sms'n op volgen van de crisis door de Permanentie";"Envoi/réception de sms et suivi de crise par la Permanence";2839;;3435;;;;2177;3444;0;;0;;0;;;0;;;;;;;"Publiek / Public";;;;;"Serveur sécurisé interne l'application (site web). 1 accès pour la Permanence (utilisateur: envoi/réception) et un accès admin. Serveur au Centre de Crise protégé par l'infrastructure ICT: firewall, DMZ, backup,… Backup quotidien. Procédure haute disponibilité et réparation automatique. Monitoring automatique de la puissance du signal et email en cas de problème. Reporting. Accès aux logs et à la db: protégés.

Uniquement accessible par le personnel de la Permanence et par l'administrateur.";;;
3553;"Habil-access / Habil-access";3908;"Bart Raeymaekers";"Verantwoordelijke voor de verwerking / Responsable de traitement";;"Publiek / publique";;Habil-access;Habil-access;" ";" ";2839;;3435;;;;2177;3443;0;;0;;0;;;0;;;;;;;"Publiek / Public";;;;;"Serveur sécurisé interne hébergeant le fichier. Seul le propiétaire du fichier (1 personne) a accès. Serveur au Centre de Crise protégé par l'infrastructure ICT: firewall, DMZ, backup,…

Uniquement accessible par le propriétaire du fichier

-Restriction d'accès aux personnes autorisées";;;
3554;"Passenger Name Record / Passenger Name Record";3908;"Bart Raeymaekers";"Verantwoordelijke voor de verwerking / Responsable de traitement";;"Publiek / publique";;"Passenger Name Record";"Passenger Name Record";"Bestand met de reisgegevens van passagiers";"Fichier avec des informations de voyageurs";2839;;3435;;;;2177;3444//3443//3445//3466//3453//3474//3476;0;;0;;0;;;0;;;;;;;"Publiek / Public";;;;;"Lutte contre la criminalité grave, le radicalisme et le terrorisme en utilisant les données des passagers arrivant, partant ou transitant par la Belgique et recoupées avec les informations provenant des 4 services compétents de renseignements (VSSE, ADIV/SGRS, Police, Douane)

-Equipement pour la prévention, la détection et la manipulation des menaces physiques

Directive européenne du 18/04/2016  relative à
l'utilisation des données des dossiers passagers (PNR) pour la prévention
et la détection des infractions terroristes et des formes graves de
criminalité, ainsi que pour les enquêtes et les poursuites en la matière";;;
4195;"Belcotax / Belcotax";3899;"DG Statistics Belgium";"Verantwoordelijke voor de verwerking / Responsable de traitement";;"Publiek / publique";;Belcotax;Belcotax;"Gebruik van Becotax gegevens om de last van SILC, LFS, SES en LCS enquêtes te verlichten.";"Utilisation du fichier Belcotax pour alléger la charge de réponse des participants aux enquêtes SILC, LFS, SES et LCS.";2891;2891;;20160630;;;2172;3443//3509;0;;0;;0;;;0;;;;;;;"Publiek / Public";;;;"Traitement essentiellement realisé au sein du Data-Warehouse du SPF Economie. ";"Seules les membres de la DG Statistique ont accès à ces données. Quelques membres du Centre de collecte ont accès aux données avec identifiants directs. Les statisticiens de la DT Société n'ont accès qu'à la version codée des donées. La quasi totalité des traitements se fait au sein du Data-Warehouse. Mesure spécifique pour les données avec identifiants directs: un logging permet, pour le Data-Warehouse, de retracer l'historique des requêtes réalisées sur les données par les agents de la DG Statistique. 

-Désignation Délégué à la protection des données (DPO)
-Désignation du conseiller en sécurité (CS)
-Liste actuelle des personnes autorisées (utilisation / traitement des données personnelles)
-Systèmes d'authentification
-Sauvegarde et restauration
-Protection et surveillance de tous les réseaux contre les accès non autorisés (y compris les logiciels malveillants)
-Disponibilité de ressources organisationnelles, techniques et financières adéquates et adaptées
-Description du processus de gestion des incidents de sécurité
-Description processus de sensibilisation 'politique de sécurité de l'information'
-Description des responsabilités et mesures organisationnelles
-Garder une trace de l'identité et des actions exécutées par des ""personnes autorisées""
-Configuration des systèmes et des réseaux
-Locaux identifiés et protégés pour les activités de transformation
-Équipe de réponse aux incidents
-Identification des différentes responsabilités en matière de sécurité de l'information
-Politique de sécurité de l'information
-Information et formation des salariés concernés, cf. leurs responsabilités
-Inventaire utilisé / traitement des données personnelles (y compris la localisation et le traitement)
-Liste nominative des organisations / personnes ayant accès aux données personnelles (destinataires)
-Politique de suivi (incidents, infractions, etc.)
-Les procédures de catégorisation des informations (inventaire, localisation, ...)
-Restriction d'accès aux personnes autorisées
-Mesures disciplinaires en cas de non-respect des règles prescrites
-Rapports de notifications d'incidents
-Ressources de travail suffisantes (temps, personnel, équipement et budget) pour le CS / DPO
-Accès gratuit aux informations nécessaires pour le CV / DPO";"Les données collectées par la DG Statistique ne peuvent être utilisées que pour des finalités statistiques (article 1er bis de la loi du 4 juillet 1962 relative à la statistique publiques). Cette garantie légale fait que le risque, pour le citoyen, de voir ses données utilisées pour d'autres fins est nul.
Les données avec identifiants directs ne sont accessibles que par un nombre très limité de personnes du Centre de collecte. Les données sont codées avant d'être mises à disposition de la Direction Thématique Société (qui analyse les données).";;
4198;"Nationaal register / Registre National";3901;Ministre;"Verantwoordelijke voor de verwerking / Responsable de traitement";"Directeur général";"Publiek / publique";;"Nationaal register";"Registre National";"Identificatie van natuurlijke personen";"Identification des personnes physiques";2849;2845;;19830808;;;2174;3443//3444//3446//3473//3474//3475//3476//3478//3481//3486//3498//3513//3520//3521;0;;0;//////////;0;;;0;;;;;;;"Privaat / Privé";;;;;"-Aangepaste beheersmaatregelen voor 'logginggegevens' (dit zijn ook persoonsgegevens)
-Weerhouden prioriteiten en beheersmaatregelen";;;
4201;"Personeelsdossier / Dossier personnel";3871;"Raad van het BIPT / Conseil de l'IBPT";"Verantwoordelijke voor de verwerking / Responsable de traitement";"Niet toepasselijk. / Pas d'application.";"Publiek / publique";;Personeelsdossier;"Dossier personnel";"Deze verwerkig betreft de personeelsdossiers van de personeelsleden van het BIPT.";"Ce traitement concerne le dossiers personnel des membres du personnel de l'IBPT.";2826;;;20070131;;;2162;3447//3443//3460//3474//3476//3486//3494//3499;0;;0;;0;;;0;;;;;;;"Publiek / Public";"FOD Beleid en Ondersteuning <br> SPF Stratégie & Appui";;/;"Microsoft Office (Excel)
Primetime";"-Aanduiding veiligheidsconsulent (VC)
-Aanduiding functionaris voor gegevensbescherming (DPO)
-Back-up & restore
-Bescherming en monitoring van alle netwerken tegen onrechtmatige toegang (incl. malware)
-Informeren en opleiden van de betrokken medewerkers i.f.v. hun verantwoordelijkheden";"Toegang door derden. / Accès par des tiers.
Verlies of diefstal. / Perte ou vol.";/;/
4450;"HR / RH";3863;"RSZ,RSZ- HR";"Verantwoordelijke voor de verwerking / Responsable de traitement,Verwerker / Sous-traitant";;"Privaat / privé";"Openbaarmaking doet afbreuk aan de persoonlijke levenssfeer, tenzij de betrokken persoon met de inzage, de uitleg of de mededeling in afschrift heeft ingestemd <br> La publication porte atteinte à la vie privée, sauf si la personne concernée a préalablement donné son accord par écrit à la consultation ou à la communication sous forme de copie";HR;RH;"Verwerking van persoonsgegevens van personeel in de HR tools.";"intégration de donnés personnel du personnel dans les tools RH.";2826;2849//2827//2826;3432;19470401;;;2162;3443//3447//3448//3460//3469//3472//3474//3475//3480//3482//3481//3486//3494//3498//3499//3500//3503//3504//3505//3506//3507//3509//3513//3512//3511;0;;0;;0;;;0;;;;1;;;"Privaat / Privé";;BE0206731645;;;"-Aanduiding functionaris voor gegevensbescherming (DPO)
-Aanduiding veiligheidsconsulent (VC)";;;
4452;"WS houder kentekenplaat / WS titulaire d'une plaque d'immatriculation";3885;"DG Wegvervoer & Verkeersveiligheid";"Verantwoordelijke voor de verwerking / Responsable de traitement";;"Publiek / publique";;"WS houder kentekenplaat";"WS titulaire d'une plaque d'immatriculation";"Webservice waarmee de gebruiker naam en adres kan verkrijgen van de houder van een kentekenplaat van een voertuig";"Un webservice qui pour obtenir le nom et l'adresse du titulaire d'une plaque d'immatriculation d'un véhicule";2853;2861//2842;;;;;2161//2163;3443//3444//3513//3523;1;//;0;;1;//;"Bilateraal verdrag";0;;;"30 jaar";;;;"Publiek / Public";;;;"De FOD Mobiliteit biedt een webservice aan.
Bij request wordt een nummerplaat gestuurd, de applicatieserver van de FOD Mobiliteit antwoord met naam -en adres.  Wanneer de vrager een gemeente is, wordt ook het rijksregisternummer gegeven (met toestemming van de CBPL)";"Er worden enkel requests aanvaard en antwoorden gestuurd naar servers die expliciet zijn toegelaten op de firewall.
Daarnaast wordt de toegang ook beheerd in accesmanagement systeem, waarbij elke organisatie expliciet toegang hebben tot de specifieke service.  In voorkomend geval dat de de gebruiker een concessiehouder of verwerker is, wordt ook enkel toegang verleend aan vooraf gedefinieerde opdrachtgevers.

-Aangepaste beheersmaatregelen voor 'logginggegevens' (dit zijn ook persoonsgegevens)
-Authenticatiesystemen
-Bescherming en monitoring van alle netwerken tegen onrechtmatige toegang (incl. malware)
-Bijhouden van identiteit van en uitgevoerde bewerkingen door 'gemachtigde personen'
-Nominatieve lijst van organisaties/personen die toegang hebben tot de persoonsgegevens (ontvangers)

";"De toegangen worden beheerd met de beschikbare informatie.  Wanneer men nalaat om te melden dat de concessie of opdracht verlopen is, wordt de toegang niet aangepast.

De toegang wordt aan een organisatie verleend en per server.  Het toewijzen van gebruikers gebeurt door de organisaties en wordt niet door de FOD gecontroleerd.";;
4468;"4de Weg – een elektronisch proces voor schuldinvordering / 4ème Voie - un processus électronique pour le recouvrement de dettes";3900;"Directeru Général DT";"Verwerker / Sous-traitant";;"Privaat / privé";"Bescherming van de fundamentele rechten en vrijheden van de bestuurden <br> Protection des libertés et les droits fondamentaux des administrés";"4de Weg – een elektronisch proces voor schuldinvordering";"4ème Voie - un processus électronique pour le recouvrement de dettes";"Als dienstenintegrator stelt Fedict via de dienst '4de Weg' een elektronisch platform ter beschikking voor de uitwisseli";"En tant qu’intégrateur de services, Fedict met à disposition via le service « 4ème Voie », une plateforme électronique p";2842;2848//2845;3433//3436;;;;2161;3443//3447//3453;0;;0;;0;;;0;;;;1;;;"Publiek / Public";;;;;"-Aanduiding veiligheidsconsulent (VC)
-Aanduiding functionaris voor gegevensbescherming (DPO)
-Aangepaste beheersmaatregelen voor 'logginggegevens' (dit zijn ook persoonsgegevens)
-Actuele lijst van gemachtigde personen (gebruik/verwerking van persoonsgegevens)
-Apparatuur voor preventie, opsporing en aanpak van fysieke bedreigingen
-Audit
-Authenticatiesystemen
-Bescherming en monitoring van alle netwerken tegen onrechtmatige toegang (incl. malware)
-Beschikbaarheid van voldoende en aangepaste organisatorische, technische en financiële middelen
-Beschrijving beheersproces beveiligingsincidenten
-Beschrijving sensibiliseringsproces 'informatieveiligheidsbeleid'
-Beschrijving verantwoordelijkheden en organisatorische maatregelen
-Bijhouden van identiteit van en uitgevoerde bewerkingen door 'gemachtigde personen'
-Expliciete beschrijving van de verplichtingen inzake informatiebeveiliging in de verwerkingsovereenkomsten (derde partijen)
-Implementatie organisatorische en technische beschermingsmaatregelen (veiligheidsplan)
-Identificatie van de verschillende verantwoordelijkheden inzake informatiebeveiliging
-Informatiebeveiligingsbeleid
-Informeren en opleiden van de betrokken medewerkers i.f.v. hun verantwoordelijkheden
-Inventaris gebruikte/verwerkte persoonsgegevens (incl. lokalisatie en uitgevoerde verwerking)
-Maatregelen om het beleid regelmatig te actualiseren
-Nominatieve lijst van organisaties/personen die toegang hebben tot de persoonsgegevens (ontvangers)
-Planning van de inwerkingstelling
-Procedures voor categorisatie van de informatie (inventarisatie, lokalisatie,…)
-Procedures voor opsporen, melden en remediëren van beveiligingsincidenten
-Regelmatig toezicht en opvolging
-Technische documentatie ingestelde beheersmaatregelen
-Toegangsbeperking tot gemachtigde personen";;;
4472;"Klantmanagement en monitoring, management en leveranciersopvolging, HR / Gestion et suivi clientèle, gestion et suivi fournisseur, HR";3840;"EFFICY S.A.,ESB.TSB";"Verwerker / Sous-traitant,Verwerker / Sous-traitant";;"Beperkt publiek / publique avec restrictions";"Openbaarmaking doet afbreuk aan de persoonlijke levenssfeer, tenzij de betrokken persoon met de inzage, de uitleg of de mededeling in afschrift heeft ingestemd <br> La publication porte atteinte à la vie privée, sauf si la personne concernée a préalablement donné son accord par écrit à la consultation ou à la communication sous forme de copie";"Klantmanagement en monitoring, management en leveranciersopvolging, HR";"Gestion et suivi clientèle, gestion et suivi fournisseur, HR";"Klantbeheer, profilering, verhuur van ruimtes, servicepromotie, HR, leveranciersorder.";"Gestion clientèle, profilage, location d'espaces, promotion des services, RH, commande fournisseurs.";2830;2888//2833//2827//2859//2881//2826//2886//2884//2883//2885//2839//2829//2830//2872//2835//2834//2828;3431//3433//3432;;;1;2161//2171//2172;3443//3444//3447//3449//3457//3470//3477//3486//3485//3484//3492//3494//3498//3503//3505//3511//3512//3519//3521//3522//3523;0;;0;////;0;;;0;;;;1;;;"Privaat / Privé";;0875.895.449;;"Base de donnée - SQL serveur.
Hebergement cloud - serveurs EFFICY, SRO (ESB-TSB)
HTTPS 
";"-Beschikbaarheid van voldoende en aangepaste organisatorische, technische en financiële middelen
-Incident respons team
-Authenticatiesystemen
-Back-up & restore
-Bescherming en monitoring van alle netwerken tegen onrechtmatige toegang (incl. malware)
-Bijhouden van identiteit van en uitgevoerde bewerkingen door 'gemachtigde personen'
-Herstel- en continuïteitsplan (beperken dienstonderbreking)
-Toegangscontroles tot de verschillende informatiesystemen (programma's, procedures, opslag, telecom,…)";;;
4517;"Behandeling van klachten en beheer van gegevens van personen die spontaan informatie hebben opgevraagd bij de FSMA. / Traitement des plaintes et gestion de données relatives aux personnes qui se sont adressées spontanément à la FSMA pour demander des renseignements";3845;FSMA;"Verantwoordelijke voor de verwerking / Responsable de traitement";;"Beperkt publiek / publique avec restrictions";"Openbaarmaking doet afbreuk aan een bij wet ingestelde geheimhoudingsverplichting <br> La publication porte atteinte à une obligation de secret instaurée par la loi";"Behandeling van klachten en beheer van gegevens van personen die spontaan informatie hebben opgevraagd bij de FSMA.";"Traitement des plaintes et gestion de données relatives aux personnes qui se sont adressées spontanément à la FSMA pour demander des renseignements";"Behandeling van klachten en vragen van personen die spontaan contact opnemen met de FSMA";"Gestion des plaintes et des demandes de renseignements des personnes qui se sont adressées spontanément à la FSMA";2849;2891;;20041112;;;2161//2167;3443//3444//3447//3449//3457//3458//3459//3460//3476;0;;0;;0;;;0;;;;;;;"Privaat / Privé";;0430.502.430;;"Sharepoint 
papier
outlook

";"-Aanduiding functionaris voor gegevensbescherming (DPO)
-Aanduiding veiligheidsconsulent (VC)-
-Actualiseren van de doelstellingen en de maatregelen inzake informatiebeveiliging in functie van de noodzaak
-Apparatuur voor preventie, opsporing en aanpak van fysieke bedreigingen
-Audit
-Auditverslagen
-Authenticatiesystemen
-Back-up & restore
-Bescherming en monitoring van alle netwerken tegen onrechtmatige toegang (incl. malware)
-Beschikbaarheid van voldoende en aangepaste organisatorische, technische en financiële middelen
-Beschrijving sensibiliseringsproces 'informatieveiligheidsbeleid'
-Beschrijving verantwoordelijkheden en organisatorische maatregelen
-Aangepaste beheersmaatregelen voor 'logginggegevens' (dit zijn ook persoonsgegevens)
-Actuele lijst van gemachtigde personen (gebruik/verwerking van persoonsgegevens)
-Identificatie van de verschillende verantwoordelijkheden inzake informatiebeveiliging
-Informatiebeveiligingsbeleid
-Informeren en opleiden van de betrokken medewerkers i.f.v. hun verantwoordelijkheden
-Inventaris gebruikte/verwerkte persoonsgegevens (incl. lokalisatie en uitgevoerde verwerking)
-Nominatieve lijst van organisaties/personen die toegang hebben tot de persoonsgegevens (ontvangers)
-Procedures voor opsporen, melden en remediëren van beveiligingsincidenten
-Regelmatig toezicht en opvolging
-Risico-analsye en -beheer
-Toegangsbeperking tot gemachtigde personen
-Toegangscontroles tot de verschillende informatiesystemen (programma's, procedures, opslag, telecom,…)
-Tuchtrechtelijke maatregelen bij niet naleving van de voorgeschreven regels
-Voldoende werkingsmiddelen (tijd, personeel, materieel en budget) voor VC/DPO
";"Pertes de données
Transmission à des tiers";;
